STIN100 Datasett 3: Når får barn en tarmflora som ligner på den vi ser hos voksne?
…
rowSums(leke_data[,-(1:3)] > 0)

##  [1] 1 2 1 1 1 1 0 0 0 0 0 2 1 0 0 1 0 1

2.5 beregne gjenomsnittlig antall taxa som finnes i observasjons-gruppene

Videre ønsker vi å regne ut gjennomsnittet for mor og barn ved ulike tidspunkter for å se hvordan bakteriefloraen er forskjellig hos mor og barn og hvordan den endrer seg over tid.

Første steget vår blir å forekle data vå litt. Vi slår sammen kolonne 4,5, og 6. Vi fordeler de på kolonnene Taxa og AntallBakterier. Dermed har vi samlet taxon-variablene våres i to nye variabler. Dette vil gjøre videre undersøkelser enklere.

leke_data %>%
  gather(Taxa, AntallBakterier, -(1:3))

## # A tibble: 54 x 5
##    MotherChildPairID MotherChild Timepoint Taxa            AntallBakterier
##                <dbl> <fct>       <fct>     <chr>                     <dbl>
##  1             23254 mother      Pregnancy Methanobreviba~              49
##  2             23474 mother      Pregnancy Methanobreviba~               9
##  3             22303 mother      Pregnancy Methanobreviba~               0
##  4             21407 mother      3months   Methanobreviba~             235
##  5             23254 mother      3months   Methanobreviba~              59
##  6             21831 mother      3months   Methanobreviba~               0
##  7             22622 child       10days    Methanobreviba~               0
##  8             22596 child       10days    Methanobreviba~               0
##  9             22751 child       10days    Methanobreviba~               0
## 10             20933 child       3months   Methanobreviba~               0
## # ... with 44 more rows
…
Lachnospiraceae er en familie bakterier som finnes i menneskets magemikrobiota. Bakterien kan hende at beskytter mot tarmkreft, uten at dette er bevist. Det er bevist at bakterien kan gi bakteriefrie mus diabetes.

3.2.2 Hvilke taxa finnes i mer enn 250 individer?

taxa_250 <- data %>%
  gather(Taxa, AntallBakterier, -(1:3)) %>%
  group_by(Taxa) %>% 
  summarise(AntallIndivid = sum(AntallBakterier > 0)) %>% 
  filter(AntallIndivid > 250) %>% 
  arrange(desc(AntallIndivid))

taxa_250

## # A tibble: 97 x 2
##    Taxa                 AntallIndivid
##    <chr>                        <int>
##  1 Bifidobacterium               1004
##  2 Streptococcus                  893
##  3 Streptococcus.2                816
##  4 Bifidobacterium.1              755
##  5 Bifidobacterium.2              717
##  6 Lachnospiraceae.1              676
##  7 Faecalibacterium               667
##  8 Streptococcus.3                665
##  9 Enterobacteriaceae.2           627
## 10 Bifidobacterium.4              607
## # ... with 87 more rows
…
4.2.3 Finn de 10 viktigste taxa for prinsipal komponent 1

loadings <- bind_cols(Taxa=rownames(pca.res$rotation), as.tibble(pca.res$rotation))

loadings %>%
  select(Taxa, PC1) %>%
  arrange(desc(abs(PC1)))

## # A tibble: 1,268 x 2
##    Taxa                  PC1
##    <chr>               <dbl>
##  1 Lachnospiraceae.1  -0.231
##  2 Faecalibacterium.1 -0.202
##  3 Faecalibacterium   -0.194
##  4 Ruminococcaceae.3  -0.190
##  5 Ruminococcaceae.2  -0.171
##  6 Dialister.1        -0.169
##  7 Bacteroides.8      -0.156
##  8 Ruminococcaceae    -0.152
##  9 Ruminococcus.1     -0.148
## 10 Bifidobacterium.8   0.147
## # ... with 1,258 more rows

#Skriv litt om tre av de: Hva er dette for en bakterie (1-2 setninger) og er det kjent at den finnes i tarmen til #mennesker (1 setning)? Kjenner du igjen noen av bakteriene fra de som fantes i flest individer (flere enn 250 individer #over)? Diskuter.

4.2.4 Finn de 10 viktigste taxa for prinsipal komponent 2

loadings %>%
  select(Taxa, PC2) %>%
  arrange(desc(abs(PC2)))

## # A tibble: 1,268 x 2
##    Taxa                     PC2
##    <chr>                  <dbl>
##  1 Blautia                0.264
##  2 Coprococcus.3          0.261
##  3 Erysipelotrichaceae.7  0.215
##  4 Ruminococcaceae       -0.192
##  5 Granulicatella         0.182
##  6 Bifidobacterium.4      0.153
##  7 Clostridiales.14       0.152
##  8 Clostridiaceae.1       0.152
##  9 Bifidobacterium        0.134
## 10 Staphylococcus        -0.131
## # ... with 1,258 more rows
…
